get ranked calls for each cluster — cor_to_call_rank • clustifyr
…
    Examples

res <- clustify(
    input = pbmc_matrix_small,
    metadata = pbmc_meta,
    cluster_col = "classified",
    ref_mat = cbmc_ref
)
#> var.features not found, using all genes instead
#> using # of genes: 599
#> similarity computation completed, matrix of 9 x 13, preparing output

cor_to_call_rank(res, threshold = "auto")
#> using threshold of 0.7
#> # A tibble: 117 × 4
#> # Groups:   cluster [9]
#>    cluster      type           r  rank
#>    <chr>        <chr>      <dbl> <dbl>
#>  1 B            B          0.909     1
#>  2 CD14+ Mono   B          0.528   100
#>  3 CD8 T        B          0.579   100
#>  4 DC           B          0.609   100
#>  5 FCGR3A+ Mono B          0.538   100
#>  6 Memory CD4 T B          0.627   100
#>  7 NK           B          0.504   100
#>  8 Naive CD4 T  B          0.644   100
#>  9 Platelet     B          0.146   100
#> 10 B            CD14+ Mono 0.535   100
#> # … with 107 more rows
…
